[gd_scene load_steps=3 format=2]

[ext_resource path="res://assets/images/cards/card_redhat.png" type="Texture" id=1]
[ext_resource path="res://src/scripts/card_manager.gd" type="Script" id=2]

[node name="card_redhat" type="Button"]
anchor_left = 0.5
anchor_top = 0.5
anchor_right = 0.5
anchor_bottom = 0.5
margin_left = -50.0
margin_top = -50.0
margin_right = 50.0
margin_bottom = 50.0
rect_min_size = Vector2( 100, 100 )
icon = ExtResource( 1 )
expand_icon = true
script = ExtResource( 2 )
__meta__ = {
"_edit_use_anchors_": false
}
[connection signal="button_up" from="." to="." method="_on_card_button_up"]
